HTTP/1.1 200 OK
Content-Type: application/json;charset=utf-8
Transfer-Encoding: chunked
Connection: close
Date: Thu, 19 Dec 2019 12:14:02 GMT
Server: openresty
Access-Control-Allow-Origin: *
Access-Control-Allow-Methods: GET, HEAD, POST, PUT, DELETE, OPTIONS
Access-Control-Expose-Headers: ETag, X-RateLimit-Limit, X-RateLimit-Remaining, X-RateLimit-Reset, Retry-After, Content-Length, Content-Range
ETag: e963e465604b5c1b97d1f4b3ed316484
Cache-Control: public, max-age=120
Vary: Accept-Encoding,Accept-Encoding
X-Cache: Miss from cloudfront
Via: 1.1 d04998a67c7a3fb6819bd5fdd0bbe125.cloudfront.net (CloudFront)
X-Amz-Cf-Pop: BRU50-C1
X-Amz-Cf-Id: j2DgmYZ_Ge1d7wH8sPVBvXJJCWYaNZRK1tKLZ56goOAWiYRxOwjVwA==

fd6
{"page":1,"total_results":567,"total_pages":29,"results":[{"popularity":26.175,"vote_count":8235,"video":false,"poster_path":"\/2h00HrZs89SL3tXB4nbkiM7BKHs.jpg","id":348,"adult":false,"backdrop_path":"\/dfNrZ82poQ8blHWJreIv6JZQ9JA.jpg","original_language":"en","original_title":"Alien","genre_ids":[27,878],"title":"Alien","vote_average":8.1,"overview":"During its return to the earth, commercial spaceship Nostromo intercepts a distress signal from a distant planet. When a three-member team of the crew discovers a chamber containing thousands of eggs on the planet, a creature inside one of the eggs attacks an explorer. The entire crew is unaware of the impending nightmare set to descend upon them when the alien parasite planted inside its unfortunate host is birthed.","release_date":"1979-05-25"},{"popularity":17.969,"vote_count":3055,"video":false,"poster_path":"\/p7mUd9GpmCYV5qhkKGmiEerFK3i.jpg","id":8077,"adult":false,"backdrop_path":"\/nDPuIjpJyGDOnNEby5ZgkRBxymS.jpg","original_language":"en","original_title":"Alien³","genre_ids":[28,27,878],"title":"Alien³","vote_average":6.3,"overview":"After escaping with Newt and Hicks from the alien planet, Ripley crash lands on Fiorina 161, a prison planet and host to a correctional facility. Unfortunately, although Newt and Hicks do not survive the crash, a more unwelcome visitor does. The prison does not allow weapons of any kind, and with aid being a long time away, the prisoners must simply survive in any way they can.","release_date":"1992-05-22"},{"popularity":26.565,"vote_count":5300,"video":false,"poster_path":"\/zecMELPbU5YMQpC81Z8ImaaXuf9.jpg","id":126889,"adult":false,"backdrop_path":"\/6jajFcaY2YsfGQstJ5HaqZNVseX.jpg","original_language":"en","original_title":"Alien: Covenant","genre_ids":[27,878,53],"title":"Alien: Covenant","vote_average":5.9,"overview":"Bound for a remote planet on the far side of the galaxy, the crew of the colony ship 'Covenant' discovers what is thought to be an uncharted paradise, but is actually a dark, dangerous world—which has a sole inhabitant: the 'synthetic', David, survivor of the doomed Prometheus expedition.","release_date":"2017-05-09"},{"popularity":18.134,"vote_count":2588,"video":false,"poster_path":"\/2mavulZivbQa8XZlRA6h3hmesl7.jpg","id":8078,"adult":false,"backdrop_path":"\/1F8KilfgVwWTB1tIzfwoKUvPqpl.jpg","original_language":"en","original_title":"Alien Resurrection","genre_ids":[28,27,878],"title":"Alien Resurrection","vote_average":6,"overview":"Two hundred years after Lt. Ripley died, a group of scientists clone her, hoping to breed the ultimate weapon. But the new Ripley is full of surprises … as are the new aliens. Ripley must team with a band of smugglers to keep the creatures from reaching Earth.","release_date":"1997-11-12"},{"popularity":11.138,"vote_count":154,"video":false,"poster_path":"\/cWkLFMYh6n8BjeUZEkMn0hpQyTz.jpg","id":10128,"adult":false,"backdrop_path":"\/qS5vJMNGl98pYQvi5m913IiwqqH.jpg","original_language":"en","original_title":"Alien Nation","genre_ids":[80,878,53],"title":"Alien Nation","vote_average":6.1,"overview":"A few years from now, Earth will have the first contact with an alien civilisation. These aliens, known as Newcomers, slowly begin to be integrated into human society after years of quarantine.","release_date":"1988-10-07"},{"popularity":13.376,"vote_count":2367,"video":false,"poster_path":"\/9xzRKUBIqLwhhOYtcE7P1BbWXP9.jpg","id":395,"adult":false,"backdrop_path":"\/f577pt0TOy3M3vfthfC5WdoBYA.jpg","original_language":"en","original_title":"AVP: Alien vs. Predator","genre_ids":[28,12,27,878],"title":"AVP: Alien vs. Predator","vote_average":5.7,"overview":"When scientists discover something in the Arctic that appears to be a buried Pyramid, they send a research team out to investigate. Little do they know that they are about to step into a hunting ground where Aliens are grown as sport for the Predator race.","release_date":"2004-08-12"},{"popularity":8.173,"vote_count":42,"video":false,"poster_path":"\/rJOj0T5DyChfECevDg0xpEGznsl.jpg","id":593035
2010
,"adult":false,"backdrop_path":"\/3OjDQWEhvtxBlMtxYVwGxP3isLf.jpg","original_language":"en","original_title":"Alien Warfare","genre_ids":[28,878],"title":"Alien Warfare","vote_average":3.4,"overview":"A team of Navy Seals investigates a mysterious science outpost only to have to combat a squad of powerful alien soldiers.","release_date":"2019-04-05"},{"popularity":7.583,"id":258193,"video":false,"vote_count":164,"vote_average":5,"title":"Alien Abduction","release_date":"2014-04-04","original_language":"en","original_title":"Alien Abduction","genre_ids":[27,878,53],"backdrop_path":"\/hqbDsduHAsCz34AUlwJoLkEm1Wb.jpg","adult":false,"overview":"A vacationing family encounters an alien threat in this pulse-pounding thriller based on the real-life Brown Mountain Lights phenomenon in North Carolina.","poster_path":"\/vRP3IfrGCB0oXX5HubCkiNcwCcj.jpg"},{"popularity":3.682,"vote_count":6,"video":false,"poster_path":"\/zBipFulQKHQTtwv18RKviUap72Z.jpg","id":527014,"adult":false,"backdrop_path":"\/h6xShivEaMdlLboH3hLmvaaqKPZ.jpg","original_language":"en","original_title":"Alien Psychosis","genre_ids":[27],"title":"Alien Psychosis","vote_average":5.3,"overview":"Ryan O'Neil, a War Veteran suffering from PTSD after being wounded in combat, returns home to his pregnant wife, Stephanie. Her brother Tony, a corrupt cop, has been helping her out while her husband has been serving the country. Ryan and Tony have never been fond of each other, and things get heated as Tony attempts to meddle with their marriage. But when Ryan starts to have flashes and visions of killers, extraterrestrials, and other strange beings in his house at night, he's not sure whether it is real or if it is just in his mind. Stephanie, already on edge with Ryan, is deeply concerned about her husband's behavior. As the days go by, Ryan will soon find out what sinister presence has been haunting him in his nightmares. (IMDB)","release_date":"2018-02-24"},{"popularity":6.845,"id":312526,"video":false,"vote_count":116,"vote_average":4.7,"title":"Alien Outpost","release_date":"2014-09-19","original_language":"en","original_title":"Alien Outpost","genre_ids":[53,28,878],"backdrop_path":"\/lnk4hquGfzuG43ay7RZYw54q6TN.jpg","adult":false,"overview":"A documentary crew follows an elite unit of soldiers in the wake of an alien invasion.","poster_path":"\/jC6kjckGjdOLibPVyZpqj8W3Suk.jpg"},{"popularity":5.115,"id":9773,"video":false,"vote_count":71,"vote_average":5.8,"title":"Alien Autopsy","release_date":"2006-04-07","original_language":"en","original_title":"Alien Autopsy","genre_ids":[35,878],"backdrop_path":"\/vhs6UVS8FsXAFlBa2YMMv66FRmj.jpg","adult":false,"overview":"Humouristic reconstruction of the 1995 scandal when two British lads were accused of having faked a documentary from the Roswell incident in 1947.","poster_path":"\/n5zJadsRZH8XAoQ6P5FRzIAhevJ.jpg"},{"popularity":9.619,"id":13954,"video":false,"vote_count":88,"vote_average":5.3,"title":"Alien Raiders","release_date":"2008-09-21","original_language":"en","original_title":"Alien Raiders","genre_ids":[27,878,53],"backdrop_path":"\/kum5LL2CqECEkCi9PGRql8W9s2h.jpg","adult":false,"overview":"It's the end of yet another night at Hastings Supermarket, a grocery store in Buck Lake, Arizona. But just before closing, a group of masked and armed to the teeth militants invades the store and take everyone hostage","poster_path":"\/v618YWZZQt74GqHQgUGPCILHilp.jpg"},{"popularity":10.014,"id":25642,"video":false,"vote_count":87,"vote_average":5.2,"title":"Ben 10 - Alien Swarm","release_date":"2009-01-01","original_language":"en","original_title":"Ben 10 - Alien Swarm","genre_ids":[12],"backdrop_path":"\/pgGeelJPHorCrg0wHiskbHApi0o.jpg","adult":false,"overview":"Ben tenison is back in this all new Comedy Central, Movie, Based on the current Alien Force story. Alien swarm picks up with Ben 10 as a full fledged plumber but he's about to leave the ranks to do what he believes is right.","poster_path":"\/iPsltBDwEIszbDjbeBC4tQ1jTR9.jpg"},{"popularity":6.047,"id":22076,"video":false,"vote_count":66,"vote_average":5.4,"title":"Alien Hunter","release_date":"2003-07-19","original_language":"en","original_title":"Alien Hunter","genre_ids":[878,28,12],"backdrop_path":"\/lPsDl4aNMPW47wEPI9FTaJGWdXW.jpg","adult":false,"overview":"Government agents find evidence of extraterrestrial life at the South Pole.","poster_path":"\/gDxpn1MZH3PgG2IgMYcM5WBCvhB.jpg"},{"popularity":3.803,"id":31397,"video":false,"vote_count":24,"vote_average":3.1,"title":"Alien from L.A.","release_date":"1988-02-26","original_language":"en","original_title":"Alien from L.A.","genre_ids":[10751,878,12],"backdrop_path":"\/gNfqcj4vBpyobooCXXDB5n11WtE.jpg","adult":false,"overview":"When her archaeologist father disappears on an expedition, Wanda sets out to look for him. What she finds is a secret underground world, where no one believes in life on the surface and where she and her father are taken for spies.","poster_path":"\/eibnADKBgilUYauMx6HNTG9fSMJ.jpg"},{"popularity":4.28,"vote_count":12,"video":false,"poster_path":"\/crjEnEwbmhXg6g3EjiEIbjU5YfK.jpg","id":539498,"adult":false,"backdrop_path":"\/nhoXXnSYUnsM4XifSvSBy73H7vc.jpg","original_language":"en","original_title":"Alien Siege","genre_ids":[878],"title":"Alien Siege","vote_average":3.7,"overview":"After an alien spacecraft destroys Washington, D.C., the residents of a small town must fight off a unit of alien soldiers on the hunt for the President of the United States and the mysterious device he's carrying after his escape chopper crash lands nearby.","release_date":"2018-07-31"},{"popularity":4.119,"id":16634,"video":false,"vote_count":40,"vote_average":5.5,"title":"Alien Trespass","release_date":"2009-04-03","original_language":"en","original_title":"Alien Trespass","genre_ids":[28,12,35,878],"backdrop_path":"\/rk4Xe1EmzGI5V6xwQ4ou3fuJNSw.jpg","adult":false,"overview":"In 1957 a fiery object crashes into a mountaintop in the California desert, bringing the threat of disaster to Earth. Out of the flying saucer escapes a murderous creature, the Ghota, bent on destroying all life forms on the planet. A benevolent alien from the spaceship, Urp, inhabits the body of Ted Lewis, an astronomer and with the help of Tammy, a diner waitress, sets out to save mankind.","poster_path":"\/nlKCUdeuy2p2iVgGbMfavdo5qmx.jpg"},{"popularity":4.562,"id":14907,"video":false,"vote_count":39,"vote_average":3.7,"title":"Alien Apocalypse","release_date":"2005-03-26","original_language":"en","original_title":"Alien Apocalypse","genre_ids":[18,27,35,53,878],"backdrop_path":"\/anTmV4VQ4JHWkVsFOHxF0r3g0e0.jpg","adult":false,"overview":"An astronaut doctor Ivan Hood and his fellow astronaut Kelly return from their mission in space to find the world has been taken over by aliens. Now Dr. Ivan Hood and Kelly must lead a revolution to free the human slaves from their alien masters.","poster_path":"\/frwg6iwoTEuKux2mMquykcyngBN.jpg"},{"popularity":4.056,"vote_count":18,"video":false,"poster_path":"\/jBZErJ7CQEGlmQYCy7XmhAaTNej.jpg","id":19279,"adult":false,"backdrop_path":"\/3zBJJuTCZeUAZzn50xcFJ4nPPdn.jpg","original_language":"en","original_title":"Alien Agent","genre_ids":[28,878],"title":"Alien Agent","vote_average":4,"overview":"A lawman from another galaxy must stop an invading force from building a gateway to planet Earth.","release_date":"2007-07-17"},{"popularity":3.312,"vote_count":18,"video":false,"poster_path":"\/6OKyeQ8mscbOXD4Hy0QZTruL5Oz.jpg","id":52318,"adult":false,"backdrop_path":"\/1y02hhMul7En8OxEudGGB4vGuVx.jpg","original_language":"en","original_title":"Alien Predators","genre_ids":[18,27,878],"title":"Alien Predators","vote_average":5.1,"overview":"3 young friends are on vacation in Spain, until weird things begin to occur and then a man from NASA tells them what's really going on: Dangerous Alien Organisms from the Apollo 14 Moon Mission, which was tested on animals on SkyLab. But then the organisms fell to earth with SkyLab and they are now starting to infect people by brutally killing them off. And these 3 friends and NASA scientist must get an antidote from a NASA Lab nearby and save themselves and the rest of the world.","release_date":"1985-01-01"}]}
0

